Mixed effects analysis
…
df %>% 
  gather(y_variables, value, of_inner, freezing, sociability, protein1, protein2) %>% 
  group_by(y_variables, dam_id) %>% 
  summarize_if(is.numeric,var)

## # A tibble: 60 x 6
## # Groups:   y_variables [5]
##    y_variables dam_id dam_lg dam_nurse wean_wt value
##    <chr>       <chr>   <dbl>     <dbl>   <dbl> <dbl>
##  1 freezing    1           0         0    7.86 105. 
##  2 freezing    10          0         0    1.62 107. 
##  3 freezing    11          0         0    1.99  28.6
##  4 freezing    12          0         0    6.49  61.4
##  5 freezing    2           0         0    2.14  10.2
##  6 freezing    3           0         0    3.11  38.6
##  7 freezing    4           0         0    4.29  84.7
##  8 freezing    5           0         0    6.08  69.2
##  9 freezing    6           0         0    3.70  71.5
## 10 freezing    7           0         0    7.48  24.2
## # ... with 50 more rows
…
